<?xml version="1.0"?>
<!DOCTYPE svg PUBLIC '-//W3C//DTD SVG 1.0//EN'
          'http://www.w3.org/TR/2001/REC-SVG-20010904/DTD/svg10.dtd'>
<svg xmlns:xlink="http://www.w3.org/1999/xlink" style="fill-opacity:1; color-rendering:auto; color-interpolation:auto; text-rendering:auto; stroke:black; stroke-linecap:square; stroke-miterlimit:10; shape-rendering:auto; stroke-opacity:1; fill:black; stroke-dasharray:none; font-weight:normal; stroke-width:1; font-family:'Dialog'; font-style:normal; stroke-linejoin:miter; font-size:12px; stroke-dashoffset:0; image-rendering:auto;" width="564" height="418" xmlns="http://www.w3.org/2000/svg"
><!--Generated by the Batik Graphics2D SVG Generator--><defs id="genericDefs"
  /><g
  ><defs id="defs1"
    ><clipPath clipPathUnits="userSpaceOnUse" id="clipPath1"
      ><path d="M0 0 L564 0 L564 418 L0 418 L0 0 Z"
      /></clipPath
      ><font horiz-adv-x="60.009766" id="font1"
      ><font-face ascent="92.822266" descent="23.583984" units-per-em="100" style="font-style:normal; font-family:SansSerif; font-weight:normal;"
        /><missing-glyph horiz-adv-x="60.009766" d="M4.9844 -17.6719 L4.9844 70.5156 L54.9844 70.5156 L54.9844 -17.6719 L4.9844 -17.6719 ZM10.5938 -12.1094 L49.4219 -12.1094 L49.4219 64.8906 L10.5938 64.8906 L10.5938 -12.1094 Z"
        /><glyph unicode="3" horiz-adv-x="63.623047" d="M40.5781 39.3125 Q47.6562 37.7969 51.6328 33.0078 Q55.6094 28.2188 55.6094 21.1875 Q55.6094 10.4062 48.1875 4.4922 Q40.7656 -1.4219 27.0938 -1.4219 Q22.5156 -1.4219 17.6562 -0.5156 Q12.7969 0.3906 7.625 2.2031 L7.625 11.7188 Q11.7188 9.3281 16.6016 8.1094 Q21.4844 6.8906 26.8125 6.8906 Q36.0781 6.8906 40.9375 10.5469 Q45.7969 14.2031 45.7969 21.1875 Q45.7969 27.6406 41.2812 31.2734 Q36.7656 34.9062 28.7188 34.9062 L20.2188 34.9062 L20.2188 43.0156 L29.1094 43.0156 Q36.375 43.0156 40.2344 45.9219 Q44.0938 48.8281 44.0938 54.2969 Q44.0938 59.9062 40.1172 62.9141 Q36.1406 65.9219 28.7188 65.9219 Q24.6562 65.9219 20.0156 65.0391 Q15.375 64.1562 9.8125 62.3125 L9.8125 71.0938 Q15.4375 72.6562 20.3438 73.4375 Q25.25 74.2188 29.5938 74.2188 Q40.8281 74.2188 47.3672 69.1172 Q53.9062 64.0156 53.9062 55.3281 Q53.9062 49.2656 50.4375 45.0938 Q46.9688 40.9219 40.5781 39.3125 Z"
        /><glyph unicode="-" horiz-adv-x="36.083984" d="M4.8906 31.3906 L31.2031 31.3906 L31.2031 23.3906 L4.8906 23.3906 L4.8906 31.3906 Z"
        /><glyph unicode="2" horiz-adv-x="63.623047" d="M19.1875 8.2969 L53.6094 8.2969 L53.6094 0 L7.3281 0 L7.3281 8.2969 Q12.9375 14.1094 22.6328 23.8984 Q32.3281 33.6875 34.8125 36.5312 Q39.5469 41.8438 41.4297 45.5312 Q43.3125 49.2188 43.3125 52.7812 Q43.3125 58.5938 39.2344 62.2578 Q35.1562 65.9219 28.6094 65.9219 Q23.9688 65.9219 18.8203 64.3125 Q13.6719 62.7031 7.8125 59.4219 L7.8125 69.3906 Q13.7656 71.7812 18.9453 73 Q24.125 74.2188 28.4219 74.2188 Q39.75 74.2188 46.4844 68.5547 Q53.2188 62.8906 53.2188 53.4219 Q53.2188 48.9219 51.5391 44.8984 Q49.8594 40.875 45.4062 35.4062 Q44.1875 33.9844 37.6484 27.2188 Q31.1094 20.4531 19.1875 8.2969 Z"
        /><glyph unicode="1" horiz-adv-x="63.623047" d="M12.4062 8.2969 L28.5156 8.2969 L28.5156 63.9219 L10.9844 60.4062 L10.9844 69.3906 L28.4219 72.9062 L38.2812 72.9062 L38.2812 8.2969 L54.3906 8.2969 L54.3906 0 L12.4062 0 L12.4062 8.2969 Z"
        /><glyph unicode="0" horiz-adv-x="63.623047" d="M31.7812 66.4062 Q24.1719 66.4062 20.3359 58.9141 Q16.5 51.4219 16.5 36.375 Q16.5 21.3906 20.3359 13.8906 Q24.1719 6.3906 31.7812 6.3906 Q39.4531 6.3906 43.2891 13.8906 Q47.125 21.3906 47.125 36.375 Q47.125 51.4219 43.2891 58.9141 Q39.4531 66.4062 31.7812 66.4062 ZM31.7812 74.2188 Q44.0469 74.2188 50.5156 64.5234 Q56.9844 54.8281 56.9844 36.375 Q56.9844 17.9688 50.5156 8.2734 Q44.0469 -1.4219 31.7812 -1.4219 Q19.5312 -1.4219 13.0625 8.2734 Q6.5938 17.9688 6.5938 36.375 Q6.5938 54.8281 13.0625 64.5234 Q19.5312 74.2188 31.7812 74.2188 Z"
        /><glyph unicode="e" horiz-adv-x="61.523438" d="M56.2031 29.5938 L56.2031 25.2031 L14.8906 25.2031 Q15.4844 15.9219 20.4844 11.0625 Q25.4844 6.2031 34.4219 6.2031 Q39.5938 6.2031 44.4531 7.4688 Q49.3125 8.7344 54.1094 11.2812 L54.1094 2.7812 Q49.2656 0.7344 44.1875 -0.3438 Q39.1094 -1.4219 33.8906 -1.4219 Q20.7969 -1.4219 13.1562 6.1953 Q5.5156 13.8125 5.5156 26.8125 Q5.5156 40.2344 12.7656 48.1172 Q20.0156 56 32.3281 56 Q43.3594 56 49.7812 48.8984 Q56.2031 41.7969 56.2031 29.5938 ZM47.2188 32.2344 Q47.125 39.5938 43.0938 43.9922 Q39.0625 48.3906 32.4219 48.3906 Q24.9062 48.3906 20.3906 44.1406 Q15.875 39.8906 15.1875 32.1719 L47.2188 32.2344 Z"
        /><glyph unicode="l" horiz-adv-x="27.783203" d="M9.4219 75.9844 L18.4062 75.9844 L18.4062 0 L9.4219 0 L9.4219 75.9844 Z"
        /><glyph unicode="g" horiz-adv-x="63.476562" d="M45.4062 27.9844 Q45.4062 37.75 41.3828 43.1172 Q37.3594 48.4844 30.0781 48.4844 Q22.8594 48.4844 18.8281 43.1172 Q14.7969 37.75 14.7969 27.9844 Q14.7969 18.2656 18.8281 12.8906 Q22.8594 7.5156 30.0781 7.5156 Q37.3594 7.5156 41.3828 12.8906 Q45.4062 18.2656 45.4062 27.9844 ZM54.3906 6.7812 Q54.3906 -7.1719 48.1953 -13.9844 Q42 -20.7969 29.2031 -20.7969 Q24.4688 -20.7969 20.2656 -20.0938 Q16.0625 -19.3906 12.1094 -17.9219 L12.1094 -9.1875 Q16.0625 -11.3281 19.9219 -12.3516 Q23.7812 -13.375 27.7812 -13.375 Q36.625 -13.375 41.0156 -8.7656 Q45.4062 -4.1562 45.4062 5.1719 L45.4062 9.625 Q42.625 4.7812 38.2812 2.3906 Q33.9375 0 27.875 0 Q17.8281 0 11.6719 7.6641 Q5.5156 15.3281 5.5156 27.9844 Q5.5156 40.6719 11.6719 48.3359 Q17.8281 56 27.875 56 Q33.9375 56 38.2812 53.6094 Q42.625 51.2188 45.4062 46.3906 L45.4062 54.6875 L54.3906 54.6875 L54.3906 6.7812 Z"
        /><glyph unicode="n" horiz-adv-x="63.378906" d="M54.8906 33.0156 L54.8906 0 L45.9062 0 L45.9062 32.7188 Q45.9062 40.4844 42.875 44.3359 Q39.8438 48.1875 33.7969 48.1875 Q26.5156 48.1875 22.3125 43.5547 Q18.1094 38.9219 18.1094 30.9062 L18.1094 0 L9.0781 0 L9.0781 54.6875 L18.1094 54.6875 L18.1094 46.1875 Q21.3438 51.125 25.7109 53.5625 Q30.0781 56 35.7969 56 Q45.2188 56 50.0547 50.1719 Q54.8906 44.3438 54.8906 33.0156 Z"
        /><glyph unicode="i" horiz-adv-x="27.783203" d="M9.4219 54.6875 L18.4062 54.6875 L18.4062 0 L9.4219 0 L9.4219 54.6875 ZM9.4219 75.9844 L18.4062 75.9844 L18.4062 64.5938 L9.4219 64.5938 L9.4219 75.9844 Z"
        /><glyph unicode="s" horiz-adv-x="52.09961" d="M44.2812 53.0781 L44.2812 44.5781 Q40.4844 46.5312 36.3828 47.5078 Q32.2812 48.4844 27.875 48.4844 Q21.1875 48.4844 17.8438 46.4375 Q14.5 44.3906 14.5 40.2812 Q14.5 37.1562 16.8906 35.375 Q19.2812 33.5938 26.5156 31.9844 L29.5938 31.2969 Q39.1562 29.25 43.1875 25.5156 Q47.2188 21.7812 47.2188 15.0938 Q47.2188 7.4688 41.1875 3.0234 Q35.1562 -1.4219 24.6094 -1.4219 Q20.2188 -1.4219 15.4531 -0.5625 Q10.6875 0.2969 5.4219 2 L5.4219 11.2812 Q10.4062 8.6875 15.2344 7.3984 Q20.0625 6.1094 24.8125 6.1094 Q31.1562 6.1094 34.5703 8.2812 Q37.9844 10.4531 37.9844 14.4062 Q37.9844 18.0625 35.5234 20.0156 Q33.0625 21.9688 24.7031 23.7812 L21.5781 24.5156 Q13.2344 26.2656 9.5234 29.9062 Q5.8125 33.5469 5.8125 39.8906 Q5.8125 47.6094 11.2812 51.8047 Q16.75 56 26.8125 56 Q31.7812 56 36.1797 55.2734 Q40.5781 54.5469 44.2812 53.0781 Z"
        /><glyph unicode="p" horiz-adv-x="63.476562" d="M18.1094 8.2031 L18.1094 -20.7969 L9.0781 -20.7969 L9.0781 54.6875 L18.1094 54.6875 L18.1094 46.3906 Q20.9531 51.2656 25.2734 53.6328 Q29.5938 56 35.5938 56 Q45.5625 56 51.7891 48.0938 Q58.0156 40.1875 58.0156 27.2969 Q58.0156 14.4062 51.7891 6.4922 Q45.5625 -1.4219 35.5938 -1.4219 Q29.5938 -1.4219 25.2734 0.9531 Q20.9531 3.3281 18.1094 8.2031 ZM48.6875 27.2969 Q48.6875 37.2031 44.6094 42.8438 Q40.5312 48.4844 33.4062 48.4844 Q26.2656 48.4844 22.1875 42.8438 Q18.1094 37.2031 18.1094 27.2969 Q18.1094 17.3906 22.1875 11.75 Q26.2656 6.1094 33.4062 6.1094 Q40.5312 6.1094 44.6094 11.75 Q48.6875 17.3906 48.6875 27.2969 Z"
        /><glyph unicode="d" horiz-adv-x="63.476562" d="M45.4062 46.3906 L45.4062 75.9844 L54.3906 75.9844 L54.3906 0 L45.4062 0 L45.4062 8.2031 Q42.5781 3.3281 38.2578 0.9531 Q33.9375 -1.4219 27.875 -1.4219 Q17.9688 -1.4219 11.7422 6.4922 Q5.5156 14.4062 5.5156 27.2969 Q5.5156 40.1875 11.7422 48.0938 Q17.9688 56 27.875 56 Q33.9375 56 38.2578 53.6328 Q42.5781 51.2656 45.4062 46.3906 ZM14.7969 27.2969 Q14.7969 17.3906 18.875 11.75 Q22.9531 6.1094 30.0781 6.1094 Q37.2031 6.1094 41.3047 11.75 Q45.4062 17.3906 45.4062 27.2969 Q45.4062 37.2031 41.3047 42.8438 Q37.2031 48.4844 30.0781 48.4844 Q22.9531 48.4844 18.875 42.8438 Q14.7969 37.2031 14.7969 27.2969 Z"
        /><glyph unicode="r" horiz-adv-x="41.11328" d="M41.1094 46.2969 Q39.5938 47.1719 37.8125 47.5859 Q36.0312 48 33.8906 48 Q26.2656 48 22.1875 43.0469 Q18.1094 38.0938 18.1094 28.8125 L18.1094 0 L9.0781 0 L9.0781 54.6875 L18.1094 54.6875 L18.1094 46.1875 Q20.9531 51.1719 25.4922 53.5859 Q30.0312 56 36.5312 56 Q37.4531 56 38.5781 55.8828 Q39.7031 55.7656 41.0625 55.5156 L41.1094 46.2969 Z"
        /><glyph unicode="a" horiz-adv-x="61.279297" d="M34.2812 27.4844 Q23.3906 27.4844 19.1875 25 Q14.9844 22.5156 14.9844 16.5 Q14.9844 11.7188 18.1406 8.9141 Q21.2969 6.1094 26.7031 6.1094 Q34.1875 6.1094 38.7031 11.4062 Q43.2188 16.7031 43.2188 25.4844 L43.2188 27.4844 L34.2812 27.4844 ZM52.2031 31.2031 L52.2031 0 L43.2188 0 L43.2188 8.2969 Q40.1406 3.3281 35.5469 0.9531 Q30.9531 -1.4219 24.3125 -1.4219 Q15.9219 -1.4219 10.9609 3.2969 Q6 8.0156 6 15.9219 Q6 25.1406 12.1797 29.8281 Q18.3594 34.5156 30.6094 34.5156 L43.2188 34.5156 L43.2188 35.4062 Q43.2188 41.6094 39.1406 45 Q35.0625 48.3906 27.6875 48.3906 Q23 48.3906 18.5547 47.2656 Q14.1094 46.1406 10.0156 43.8906 L10.0156 52.2031 Q14.9375 54.1094 19.5781 55.0547 Q24.2188 56 28.6094 56 Q40.4844 56 46.3438 49.8516 Q52.2031 43.7031 52.2031 31.2031 Z"
        /><glyph unicode="t" horiz-adv-x="39.208984" d="M18.3125 70.2188 L18.3125 54.6875 L36.8125 54.6875 L36.8125 47.7031 L18.3125 47.7031 L18.3125 18.0156 Q18.3125 11.3281 20.1406 9.4219 Q21.9688 7.5156 27.5938 7.5156 L36.8125 7.5156 L36.8125 0 L27.5938 0 Q17.1875 0 13.2344 3.8828 Q9.2812 7.7656 9.2812 18.0156 L9.2812 47.7031 L2.6875 47.7031 L2.6875 54.6875 L9.2812 54.6875 L9.2812 70.2188 L18.3125 70.2188 Z"
      /></font
      ><font horiz-adv-x="60.009766" id="font2"
      ><font-face ascent="92.822266" descent="23.583984" units-per-em="100" style="font-style:normal; font-family:SansSerif; font-weight:bold;"
        /><missing-glyph horiz-adv-x="60.009766" d="M4.9844 -17.6719 L4.9844 70.5156 L54.9844 70.5156 L54.9844 -17.6719 L4.9844 -17.6719 ZM10.5938 -12.1094 L49.4219 -12.1094 L49.4219 64.8906 L10.5938 64.8906 L10.5938 -12.1094 Z"
        /><glyph unicode="0" horiz-adv-x="69.58008" d="M46 36.5312 Q46 50.2031 43.4375 55.7891 Q40.875 61.375 34.8125 61.375 Q28.7656 61.375 26.1719 55.7891 Q23.5781 50.2031 23.5781 36.5312 Q23.5781 22.7031 26.1719 17.0391 Q28.7656 11.375 34.8125 11.375 Q40.8281 11.375 43.4141 17.0391 Q46 22.7031 46 36.5312 ZM64.7969 36.375 Q64.7969 18.2656 56.9844 8.4219 Q49.1719 -1.4219 34.8125 -1.4219 Q20.4062 -1.4219 12.5938 8.4219 Q4.7812 18.2656 4.7812 36.375 Q4.7812 54.5469 12.5938 64.3828 Q20.4062 74.2188 34.8125 74.2188 Q49.1719 74.2188 56.9844 64.3828 Q64.7969 54.5469 64.7969 36.375 Z"
        /><glyph unicode="5" horiz-adv-x="69.58008" d="M10.5938 72.9062 L57.3281 72.9062 L57.3281 59.0781 L25.5938 59.0781 L25.5938 47.7969 Q27.7344 48.3906 29.9062 48.7109 Q32.0781 49.0312 34.4219 49.0312 Q47.75 49.0312 55.1719 42.3594 Q62.5938 35.6875 62.5938 23.7812 Q62.5938 11.9688 54.5156 5.2734 Q46.4375 -1.4219 32.0781 -1.4219 Q25.875 -1.4219 19.7969 -0.2188 Q13.7188 0.9844 7.7188 3.4219 L7.7188 18.2188 Q13.6719 14.7969 19.0156 13.0859 Q24.3594 11.375 29.1094 11.375 Q35.9375 11.375 39.8672 14.7188 Q43.7969 18.0625 43.7969 23.7812 Q43.7969 29.5469 39.8672 32.8672 Q35.9375 36.1875 29.1094 36.1875 Q25.0469 36.1875 20.4609 35.1328 Q15.875 34.0781 10.5938 31.8906 L10.5938 72.9062 Z"
        /><glyph unicode="9" horiz-adv-x="69.58008" d="M10.0156 1.6094 L10.0156 15.0938 Q14.5 12.9844 18.6016 11.9375 Q22.7031 10.8906 26.7031 10.8906 Q35.1094 10.8906 39.7969 15.5547 Q44.4844 20.2188 45.3125 29.3906 Q42 26.9531 38.2344 25.7344 Q34.4688 24.5156 30.0781 24.5156 Q18.8906 24.5156 12.0312 31.0312 Q5.1719 37.5469 5.1719 48.1875 Q5.1719 59.9688 12.8125 67.0469 Q20.4531 74.125 33.2969 74.125 Q47.5625 74.125 55.375 64.5078 Q63.1875 54.8906 63.1875 37.3125 Q63.1875 19.2344 54.0547 8.9062 Q44.9219 -1.4219 29 -1.4219 Q23.875 -1.4219 19.1875 -0.6641 Q14.5 0.0938 10.0156 1.6094 ZM33.2031 36.7188 Q38.1406 36.7188 40.625 39.9141 Q43.1094 43.1094 43.1094 49.5156 Q43.1094 55.8594 40.625 59.0859 Q38.1406 62.3125 33.2031 62.3125 Q28.2656 62.3125 25.7812 59.0859 Q23.2969 55.8594 23.2969 49.5156 Q23.2969 43.1094 25.7812 39.9141 Q28.2656 36.7188 33.2031 36.7188 Z"
        /><glyph unicode="." horiz-adv-x="37.98828" d="M10.2031 18.8906 L27.7812 18.8906 L27.7812 0 L10.2031 0 L10.2031 18.8906 Z"
        /><glyph unicode="2" horiz-adv-x="69.58008" d="M28.8125 13.8125 L60.8906 13.8125 L60.8906 0 L7.9062 0 L7.9062 13.8125 L34.5156 37.3125 Q38.0938 40.5312 39.7969 43.6094 Q41.5 46.6875 41.5 50 Q41.5 55.125 38.0625 58.25 Q34.625 61.375 28.9062 61.375 Q24.5156 61.375 19.2891 59.5 Q14.0625 57.625 8.1094 53.9062 L8.1094 69.9219 Q14.4531 72.0156 20.6562 73.1172 Q26.8594 74.2188 32.8125 74.2188 Q45.9062 74.2188 53.1562 68.4609 Q60.4062 62.7031 60.4062 52.3906 Q60.4062 46.4375 57.3281 41.2891 Q54.25 36.1406 44.3906 27.4844 L28.8125 13.8125 Z"
        /><glyph unicode="=" horiz-adv-x="83.78906" d="M10.5938 48.1875 L73.1875 48.1875 L73.1875 36.7188 L10.5938 36.7188 L10.5938 48.1875 ZM10.5938 25.9844 L73.1875 25.9844 L73.1875 14.4062 L10.5938 14.4062 L10.5938 25.9844 Z"
        /><glyph unicode=" " horiz-adv-x="34.814453" d=""
        /><glyph unicode="t" horiz-adv-x="47.802734" d="M27.4844 70.2188 L27.4844 54.6875 L45.5156 54.6875 L45.5156 42.1875 L27.4844 42.1875 L27.4844 19 Q27.4844 15.1875 29 13.8438 Q30.5156 12.5 35.0156 12.5 L44 12.5 L44 0 L29 0 Q18.6562 0 14.3359 4.3203 Q10.0156 8.6406 10.0156 19 L10.0156 42.1875 L1.3125 42.1875 L1.3125 54.6875 L10.0156 54.6875 L10.0156 70.2188 L27.4844 70.2188 Z"
      /></font
    ></defs
    ><g style="fill:white; stroke:white;"
    ><rect x="0" y="0" width="564" style="clip-path:url(#clipPath1); stroke:none;" height="418"
    /></g
    ><g style="fill:white; text-rendering:optimizeSpeed; color-rendering:optimizeSpeed; image-rendering:optimizeSpeed; shape-rendering:crispEdges; stroke:white; color-interpolation:sRGB;"
    ><rect x="0" width="564" height="418" y="0" style="stroke:none;"
      /><path style="stroke:none;" d="M121 372 L462 372 L462 31 L121 31 Z"
    /></g
    ><g style="fill:rgb(38,38,38); text-rendering:geometricPrecision; image-rendering:optimizeQuality; color-rendering:optimizeQuality; stroke-linejoin:round; stroke:rgb(38,38,38); color-interpolation:linearRGB; stroke-width:0.6667;"
    ><line y2="372" style="fill:none;" x1="121" x2="462" y1="372"
      /><line y2="31" style="fill:none;" x1="121" x2="462" y1="31"
      /><line y2="368.59" style="fill:none;" x1="121" x2="121" y1="372"
      /><line y2="368.59" style="fill:none;" x1="177.8333" x2="177.8333" y1="372"
      /><line y2="368.59" style="fill:none;" x1="234.6667" x2="234.6667" y1="372"
      /><line y2="368.59" style="fill:none;" x1="291.5" x2="291.5" y1="372"
      /><line y2="368.59" style="fill:none;" x1="348.3333" x2="348.3333" y1="372"
      /><line y2="368.59" style="fill:none;" x1="405.1667" x2="405.1667" y1="372"
      /><line y2="368.59" style="fill:none;" x1="462" x2="462" y1="372"
      /><line y2="34.41" style="fill:none;" x1="121" x2="121" y1="31"
      /><line y2="34.41" style="fill:none;" x1="177.8333" x2="177.8333" y1="31"
      /><line y2="34.41" style="fill:none;" x1="234.6667" x2="234.6667" y1="31"
      /><line y2="34.41" style="fill:none;" x1="291.5" x2="291.5" y1="31"
      /><line y2="34.41" style="fill:none;" x1="348.3333" x2="348.3333" y1="31"
      /><line y2="34.41" style="fill:none;" x1="405.1667" x2="405.1667" y1="31"
      /><line y2="34.41" style="fill:none;" x1="462" x2="462" y1="31"
    /></g
    ><g transform="translate(121,377.3333)" style="font-size:13.3333px; fill:rgb(38,38,38); text-rendering:geometricPrecision; image-rendering:optimizeQuality; color-rendering:optimizeQuality; font-family:'SansSerif'; stroke:rgb(38,38,38); color-interpolation:linearRGB;"
    ><text x="-7" xml:space="preserve" y="13" style="stroke:none;"
      >-3</text
    ></g
    ><g transform="translate(177.8333,377.3333)" style="font-size:13.3333px; fill:rgb(38,38,38); text-rendering:geometricPrecision; image-rendering:optimizeQuality; color-rendering:optimizeQuality; font-family:'SansSerif'; stroke:rgb(38,38,38); color-interpolation:linearRGB;"
    ><text x="-7" xml:space="preserve" y="13" style="stroke:none;"
      >-2</text
    ></g
    ><g transform="translate(234.6667,377.3333)" style="font-size:13.3333px; fill:rgb(38,38,38); text-rendering:geometricPrecision; image-rendering:optimizeQuality; color-rendering:optimizeQuality; font-family:'SansSerif'; stroke:rgb(38,38,38); color-interpolation:linearRGB;"
    ><text x="-7" xml:space="preserve" y="13" style="stroke:none;"
      >-1</text
    ></g
    ><g transform="translate(291.5,377.3333)" style="font-size:13.3333px; fill:rgb(38,38,38); text-rendering:geometricPrecision; image-rendering:optimizeQuality; color-rendering:optimizeQuality; font-family:'SansSerif'; stroke:rgb(38,38,38); color-interpolation:linearRGB;"
    ><text x="-4.5" xml:space="preserve" y="13" style="stroke:none;"
      >0</text
    ></g
    ><g transform="translate(348.3333,377.3333)" style="font-size:13.3333px; fill:rgb(38,38,38); text-rendering:geometricPrecision; image-rendering:optimizeQuality; color-rendering:optimizeQuality; font-family:'SansSerif'; stroke:rgb(38,38,38); color-interpolation:linearRGB;"
    ><text x="-4.5" xml:space="preserve" y="13" style="stroke:none;"
      >1</text
    ></g
    ><g transform="translate(405.1667,377.3333)" style="font-size:13.3333px; fill:rgb(38,38,38); text-rendering:geometricPrecision; image-rendering:optimizeQuality; color-rendering:optimizeQuality; font-family:'SansSerif'; stroke:rgb(38,38,38); color-interpolation:linearRGB;"
    ><text x="-4.5" xml:space="preserve" y="13" style="stroke:none;"
      >2</text
    ></g
    ><g transform="translate(462,377.3333)" style="font-size:13.3333px; fill:rgb(38,38,38); text-rendering:geometricPrecision; image-rendering:optimizeQuality; color-rendering:optimizeQuality; font-family:'SansSerif'; stroke:rgb(38,38,38); color-interpolation:linearRGB;"
    ><text x="-4.5" xml:space="preserve" y="13" style="stroke:none;"
      >3</text
    ></g
    ><g style="fill:rgb(38,38,38); text-rendering:geometricPrecision; image-rendering:optimizeQuality; color-rendering:optimizeQuality; stroke-linejoin:round; stroke:rgb(38,38,38); color-interpolation:linearRGB; stroke-width:0.6667;"
    ><line y2="372" style="fill:none;" x1="121" x2="121" y1="31"
      /><line y2="372" style="fill:none;" x1="462" x2="462" y1="31"
      /><line y2="31" style="fill:none;" x1="121" x2="124.41" y1="31"
      /><line y2="87.8333" style="fill:none;" x1="121" x2="124.41" y1="87.8333"
      /><line y2="144.6667" style="fill:none;" x1="121" x2="124.41" y1="144.6667"
      /><line y2="201.5" style="fill:none;" x1="121" x2="124.41" y1="201.5"
      /><line y2="258.3333" style="fill:none;" x1="121" x2="124.41" y1="258.3333"
      /><line y2="315.1667" style="fill:none;" x1="121" x2="124.41" y1="315.1667"
      /><line y2="372" style="fill:none;" x1="121" x2="124.41" y1="372"
      /><line y2="31" style="fill:none;" x1="462" x2="458.59" y1="31"
      /><line y2="87.8333" style="fill:none;" x1="462" x2="458.59" y1="87.8333"
      /><line y2="144.6667" style="fill:none;" x1="462" x2="458.59" y1="144.6667"
      /><line y2="201.5" style="fill:none;" x1="462" x2="458.59" y1="201.5"
      /><line y2="258.3333" style="fill:none;" x1="462" x2="458.59" y1="258.3333"
      /><line y2="315.1667" style="fill:none;" x1="462" x2="458.59" y1="315.1667"
      /><line y2="372" style="fill:none;" x1="462" x2="458.59" y1="372"
    /></g
    ><g transform="translate(115.6667,31)" style="font-size:13.3333px; fill:rgb(38,38,38); text-rendering:geometricPrecision; image-rendering:optimizeQuality; color-rendering:optimizeQuality; font-family:'SansSerif'; stroke:rgb(38,38,38); color-interpolation:linearRGB;"
    ><text x="-14" xml:space="preserve" y="4.5" style="stroke:none;"
      >-3</text
    ></g
    ><g transform="translate(115.6667,87.8333)" style="font-size:13.3333px; fill:rgb(38,38,38); text-rendering:geometricPrecision; image-rendering:optimizeQuality; color-rendering:optimizeQuality; font-family:'SansSerif'; stroke:rgb(38,38,38); color-interpolation:linearRGB;"
    ><text x="-14" xml:space="preserve" y="4.5" style="stroke:none;"
      >-2</text
    ></g
    ><g transform="translate(115.6667,144.6667)" style="font-size:13.3333px; fill:rgb(38,38,38); text-rendering:geometricPrecision; image-rendering:optimizeQuality; color-rendering:optimizeQuality; font-family:'SansSerif'; stroke:rgb(38,38,38); color-interpolation:linearRGB;"
    ><text x="-14" xml:space="preserve" y="4.5" style="stroke:none;"
      >-1</text
    ></g
    ><g transform="translate(115.6667,201.5)" style="font-size:13.3333px; fill:rgb(38,38,38); text-rendering:geometricPrecision; image-rendering:optimizeQuality; color-rendering:optimizeQuality; font-family:'SansSerif'; stroke:rgb(38,38,38); color-interpolation:linearRGB;"
    ><text x="-9" xml:space="preserve" y="4.5" style="stroke:none;"
      >0</text
    ></g
    ><g transform="translate(115.6667,258.3333)" style="font-size:13.3333px; fill:rgb(38,38,38); text-rendering:geometricPrecision; image-rendering:optimizeQuality; color-rendering:optimizeQuality; font-family:'SansSerif'; stroke:rgb(38,38,38); color-interpolation:linearRGB;"
    ><text x="-9" xml:space="preserve" y="4.5" style="stroke:none;"
      >1</text
    ></g
    ><g transform="translate(115.6667,315.1667)" style="font-size:13.3333px; fill:rgb(38,38,38); text-rendering:geometricPrecision; image-rendering:optimizeQuality; color-rendering:optimizeQuality; font-family:'SansSerif'; stroke:rgb(38,38,38); color-interpolation:linearRGB;"
    ><text x="-9" xml:space="preserve" y="4.5" style="stroke:none;"
      >2</text
    ></g
    ><g transform="translate(115.6667,372)" style="font-size:13.3333px; fill:rgb(38,38,38); text-rendering:geometricPrecision; image-rendering:optimizeQuality; color-rendering:optimizeQuality; font-family:'SansSerif'; stroke:rgb(38,38,38); color-interpolation:linearRGB;"
    ><text x="-9" xml:space="preserve" y="4.5" style="stroke:none;"
      >3</text
    ></g
    ><g transform="translate(291.5003,28.25)" style="font-size:14.6667px; text-rendering:geometricPrecision; image-rendering:optimizeQuality; color-rendering:optimizeQuality; font-family:'SansSerif'; color-interpolation:linearRGB; font-weight:bold;"
    ><text x="-56" xml:space="preserve" y="-4" style="stroke:none;"
      >t = 2.950000 </text
    ></g
    ><g style="stroke-linecap:butt; fill:blue; text-rendering:geometricPrecision; image-rendering:optimizeQuality; color-rendering:optimizeQuality; stroke-linejoin:round; stroke:blue; color-interpolation:linearRGB; stroke-width:4;"
    ><path d="M291.5 201.5 L304.834 256.747 L331.0056 307.1957 L384.2269 327.1337" style="fill:none; fill-rule:evenodd;"
      /><circle transform="translate(291.5,201.5)" style="fill:none; stroke-linejoin:miter;" r="5.3333" cx="0" cy="0"
      /><circle transform="translate(304.834,256.747)" style="fill:none; stroke-linejoin:miter;" r="5.3333" cx="0" cy="0"
      /><circle transform="translate(331.0056,307.1957)" style="fill:none; stroke-linejoin:miter;" r="5.3333" cx="0" cy="0"
      /><circle transform="translate(384.2269,327.1337)" style="fill:none; stroke-linejoin:miter;" r="5.3333" cx="0" cy="0"
      /><path d="M291.5 201.5 L304.1423 256.9094 L343.7615 297.6567 L392.4958 326.8972" style="fill:none; fill-rule:evenodd; stroke:red;"
      /><circle transform="translate(291.5,201.5)" style="fill:none; stroke-linejoin:miter; stroke:red;" r="5.3333" cx="0" cy="0"
      /><circle transform="translate(304.1423,256.9094)" style="fill:none; stroke-linejoin:miter; stroke:red;" r="5.3333" cx="0" cy="0"
      /><circle transform="translate(343.7615,297.6567)" style="fill:none; stroke-linejoin:miter; stroke:red;" r="5.3333" cx="0" cy="0"
      /><circle transform="translate(392.4958,326.8972)" style="fill:none; stroke-linejoin:miter; stroke:red;" r="5.3333" cx="0" cy="0"
    /></g
    ><g style="stroke-linecap:butt; fill:rgb(0,114,189); text-rendering:geometricPrecision; image-rendering:optimizeQuality; color-rendering:optimizeQuality; stroke-linejoin:bevel; stroke-dasharray:16,4,8,4; stroke:rgb(0,114,189); color-interpolation:linearRGB; stroke-width:4; stroke-miterlimit:1;"
    ><path d="M291.5 201.5 L234.6667 201.5 L194.4794 161.3128 L194.4794 104.4794" style="fill:none; fill-rule:evenodd;"
      /><circle transform="translate(291.5,201.5)" style="fill:none; stroke-linejoin:miter; stroke-dasharray:none; stroke-miterlimit:10;" r="5.3333" cx="0" cy="0"
      /><circle transform="translate(234.6667,201.5)" style="fill:none; stroke-linejoin:miter; stroke-dasharray:none; stroke-miterlimit:10;" r="5.3333" cx="0" cy="0"
      /><circle transform="translate(194.4794,161.3128)" style="fill:none; stroke-linejoin:miter; stroke-dasharray:none; stroke-miterlimit:10;" r="5.3333" cx="0" cy="0"
      /><circle transform="translate(194.4794,104.4794)" style="fill:none; stroke-linejoin:miter; stroke-dasharray:none; stroke-miterlimit:10;" r="5.3333" cx="0" cy="0"
    /></g
    ><g style="fill:white; text-rendering:optimizeSpeed; color-rendering:optimizeSpeed; image-rendering:optimizeSpeed; shape-rendering:crispEdges; stroke:white; color-interpolation:sRGB;"
    ><path style="stroke:none;" d="M451 92 L451 42 L363 42 L363 92 Z"
    /></g
    ><g transform="translate(410,51.5)" style="text-rendering:geometricPrecision; font-family:'SansSerif'; color-interpolation:linearRGB; color-rendering:optimizeQuality; image-rendering:optimizeQuality;"
    ><text x="0" xml:space="preserve" y="4.5" style="stroke:none;"
      >single</text
    ></g
    ><g style="stroke-linecap:butt; fill:blue; text-rendering:geometricPrecision; image-rendering:optimizeQuality; color-rendering:optimizeQuality; stroke-linejoin:round; stroke:blue; color-interpolation:linearRGB; stroke-width:4;"
    ><line y2="51.5" style="fill:none;" x1="367" x2="407" y1="51.5"
      /><circle transform="translate(387,51.5)" style="fill:none; stroke-linejoin:miter;" r="5.3333" cx="0" cy="0"
    /></g
    ><g transform="translate(410,67)" style="text-rendering:geometricPrecision; font-family:'SansSerif'; color-interpolation:linearRGB; color-rendering:optimizeQuality; image-rendering:optimizeQuality;"
    ><text x="0" xml:space="preserve" y="4.5" style="stroke:none;"
      >deep</text
    ></g
    ><g style="stroke-linecap:butt; fill:red; text-rendering:geometricPrecision; image-rendering:optimizeQuality; color-rendering:optimizeQuality; stroke-linejoin:round; stroke:red; color-interpolation:linearRGB; stroke-width:4;"
    ><line y2="67" style="fill:none;" x1="367" x2="407" y1="67"
      /><circle transform="translate(387,67)" style="fill:none; stroke-linejoin:miter;" r="5.3333" cx="0" cy="0"
    /></g
    ><g transform="translate(410,82.5)" style="text-rendering:geometricPrecision; font-family:'SansSerif'; color-interpolation:linearRGB; color-rendering:optimizeQuality; image-rendering:optimizeQuality;"
    ><text x="0" xml:space="preserve" y="4.5" style="stroke:none;"
      >target</text
    ></g
    ><g style="stroke-linecap:butt; fill:rgb(0,114,189); text-rendering:geometricPrecision; image-rendering:optimizeQuality; color-rendering:optimizeQuality; stroke-linejoin:bevel; stroke-dasharray:16,4,8,4; stroke:rgb(0,114,189); color-interpolation:linearRGB; stroke-width:4; stroke-miterlimit:1;"
    ><line y2="82.5" style="fill:none;" x1="367" x2="407" y1="82.5"
      /><circle transform="translate(387,82.5)" style="fill:none; stroke-linejoin:miter; stroke-dasharray:none; stroke-miterlimit:10;" r="5.3333" cx="0" cy="0"
    /></g
    ><g style="stroke-linecap:butt; fill:rgb(38,38,38); text-rendering:geometricPrecision; color-rendering:optimizeQuality; image-rendering:optimizeQuality; stroke:rgb(38,38,38); color-interpolation:linearRGB; stroke-width:0.6667;"
    ><path d="M363 92 L363 42 L451 42 L451 92 Z" style="fill:none; fill-rule:evenodd;"
    /></g
  ></g
></svg
>
