# OPTIMIZATION_METHOD = GD_MINIMIZE 
# RATIO_HIDDEN_UNITS = 1.00 
# REGULARIZATION_RATIO_K = 1.000000e-04 
# REGULARIZATION_RATIO_BK = 0.000000e+00 
# REGULARIZATION_RATIO_W = 1.000000e-06 
# REGULARIZATION_RATIO_BW = 0.000000e+00 
# ACTIVATION = tanh 
# N_CIFAR10_BATCHES = 5
    6  5.968880e+01 # Function evaluation
    8  5.301724e+01 # Function evaluation
    9  5.002028e+01 # Function evaluation
    13  4.975065e+01 # Function evaluation
    55  3.518499e+01 # Function evaluation
    56  3.486115e+01 # Function evaluation
    57  3.455786e+01 # Function evaluation
    58  3.424524e+01 # Function evaluation
    59  3.384050e+01 # Function evaluation
    61  3.336642e+01 # Function evaluation
    62  3.292278e+01 # Function evaluation
    63  3.250520e+01 # Function evaluation
    64  3.218089e+01 # Function evaluation
    65  3.190719e+01 # Function evaluation
    67  3.180254e+01 # Function evaluation
    68  3.163986e+01 # Function evaluation
    69  3.141333e+01 # Function evaluation
    70  3.120380e+01 # Function evaluation
    71  3.103219e+01 # Function evaluation
    72  3.084320e+01 # Function evaluation
    73  3.074111e+01 # Function evaluation
    74  3.060624e+01 # Function evaluation
    75  3.046689e+01 # Function evaluation
    76  3.033674e+01 # Function evaluation
    77  3.020300e+01 # Function evaluation
    78  3.003215e+01 # Function evaluation
    80  2.985671e+01 # Function evaluation
    81  2.971686e+01 # Function evaluation
    82  2.952422e+01 # Function evaluation
    83  2.935226e+01 # Function evaluation
    85  2.927196e+01 # Function evaluation
    86  2.920117e+01 # Function evaluation
    87  2.910050e+01 # Function evaluation
    88  2.900342e+01 # Function evaluation
    91  2.888861e+01 # Function evaluation
    92  2.879706e+01 # Function evaluation
    93  2.870871e+01 # Function evaluation
    94  2.860035e+01 # Function evaluation
    95  2.850782e+01 # Function evaluation
    96  2.840797e+01 # Function evaluation
    97  2.830178e+01 # Function evaluation
    99  2.824896e+01 # Function evaluation
   100  2.817423e+01 # Function evaluation
   101  2.811100e+01 # Function evaluation
   102  2.804100e+01 # Function evaluation
   103  2.796550e+01 # Function evaluation
   104  2.789509e+01 # Function evaluation
   105  2.781609e+01 # Function evaluation
   106  2.777032e+01 # Function evaluation
   107  2.771776e+01 # Function evaluation
   108  2.765377e+01 # Function evaluation
   109  2.762098e+01 # Function evaluation
   110  2.755591e+01 # Function evaluation
   112  2.749998e+01 # Function evaluation
   113  2.744355e+01 # Function evaluation
   114  2.739448e+01 # Function evaluation
   116  2.734819e+01 # Function evaluation
   117  2.730713e+01 # Function evaluation
   118  2.726940e+01 # Function evaluation
   120  2.723449e+01 # Function evaluation
   121  2.719934e+01 # Function evaluation
   122  2.717078e+01 # Function evaluation
   124  2.714810e+01 # Function evaluation
   125  2.712795e+01 # Function evaluation
   126  2.710831e+01 # Function evaluation
   128  2.709126e+01 # Function evaluation
   129  2.707581e+01 # Function evaluation
   130  2.705927e+01 # Function evaluation
   131  2.704313e+01 # Function evaluation
   132  2.702880e+01 # Function evaluation
   134  2.701456e+01 # Function evaluation
   135  2.700190e+01 # Function evaluation
   138  2.699181e+01 # Function evaluation
   139  2.698274e+01 # Function evaluation
   140  2.697465e+01 # Function evaluation
   141  2.696714e+01 # Function evaluation
   142  2.695850e+01 # Function evaluation
   144  2.694785e+01 # Function evaluation
   146  2.693856e+01 # Function evaluation
   148  2.693206e+01 # Function evaluation
   149  2.692482e+01 # Function evaluation
   151  2.691722e+01 # Function evaluation
   153  2.691203e+01 # Function evaluation
   154  2.690661e+01 # Function evaluation
   156  2.689946e+01 # Function evaluation
   158  2.689420e+01 # Function evaluation
   159  2.688852e+01 # Function evaluation
   160  2.688301e+01 # Function evaluation
   162  2.687845e+01 # Function evaluation
   165  2.687258e+01 # Function evaluation
   167  2.686828e+01 # Function evaluation
   170  2.686183e+01 # Function evaluation
   172  2.685964e+01 # Function evaluation
   175  2.685615e+01 # Function evaluation
   176  2.685292e+01 # Function evaluation
   178  2.685071e+01 # Function evaluation
   180  2.684765e+01 # Function evaluation
   183  2.684252e+01 # Function evaluation
   185  2.683862e+01 # Function evaluation
   188  2.683411e+01 # Function evaluation
   190  2.682937e+01 # Function evaluation
   191  2.682519e+01 # Function evaluation
   192  2.682017e+01 # Function evaluation
   193  2.681605e+01 # Function evaluation
   195  2.681216e+01 # Function evaluation
   197  2.680629e+01 # Function evaluation
   199  2.680274e+01 # Function evaluation
   201  2.679849e+01 # Function evaluation
   203  2.679479e+01 # Function evaluation
   204  2.679149e+01 # Function evaluation
   205  2.678766e+01 # Function evaluation
   206  2.678415e+01 # Function evaluation
   208  2.678117e+01 # Function evaluation
   210  2.677724e+01 # Function evaluation
   213  2.677311e+01 # Function evaluation
   215  2.676921e+01 # Function evaluation
   218  2.676494e+01 # Function evaluation
   220  2.676043e+01 # Function evaluation
   222  2.675783e+01 # Function evaluation
   224  2.675447e+01 # Function evaluation
   226  2.675130e+01 # Function evaluation
   228  2.674866e+01 # Function evaluation
   230  2.674605e+01 # Function evaluation
   231  2.674324e+01 # Function evaluation
   232  2.674057e+01 # Function evaluation
   233  2.673777e+01 # Function evaluation
   235  2.673554e+01 # Function evaluation
   238  2.673141e+01 # Function evaluation
   239  2.672910e+01 # Function evaluation
   241  2.672597e+01 # Function evaluation
   242  2.672269e+01 # Function evaluation
   244  2.672039e+01 # Function evaluation
   245  2.671807e+01 # Function evaluation
   247  2.671537e+01 # Function evaluation
   248  2.671353e+01 # Function evaluation
   251  2.671137e+01 # Function evaluation
   253  2.670826e+01 # Function evaluation
   256  2.670495e+01 # Function evaluation
   257  2.670083e+01 # Function evaluation
   259  2.669814e+01 # Function evaluation
   260  2.669560e+01 # Function evaluation
   262  2.669343e+01 # Function evaluation
   263  2.669111e+01 # Function evaluation
   265  2.668814e+01 # Function evaluation
   266  2.668530e+01 # Function evaluation
   267  2.668209e+01 # Function evaluation
   269  2.667795e+01 # Function evaluation
   271  2.667553e+01 # Function evaluation
   272  2.667304e+01 # Function evaluation
   274  2.667143e+01 # Function evaluation
   275  2.666957e+01 # Function evaluation
   276  2.666778e+01 # Function evaluation
   278  2.666483e+01 # Function evaluation
   281  2.666201e+01 # Function evaluation
   283  2.665965e+01 # Function evaluation
   285  2.665822e+01 # Function evaluation
   286  2.665675e+01 # Function evaluation
   288  2.665446e+01 # Function evaluation
   289  2.665218e+01 # Function evaluation
   291  2.665075e+01 # Function evaluation
   293  2.664866e+01 # Function evaluation
   295  2.664676e+01 # Function evaluation
   299  2.664474e+01 # Function evaluation
   300  2.664305e+01 # Function evaluation
# Testing    Acc 0.25
# Validation Acc 0.21
